0 0 0 0 255
1 3 3 3 255
2 6 6 6 255
3 8 8 8 255
4 11 11 11 255
5 14 14 14 255
6 17 17 17 255
7 20 20 20 255
8 22 22 22 255
9 25 25 25 255
10 28 28 28 255
11 31 31 31 255
12 34 34 34 255
13 36 36 36 255
14 39 39 39 255
15 42 42 42 255
16 45 45 45 255
17 48 48 48 255
18 50 50 50 255
19 53 53 53 255
20 56 56 56 255
21 59 59 59 255
22 62 62 62 255
23 64 64 64 255
24 67 67 67 255
25 70 70 70 255
26 73 73 73 255
27 76 76 76 255
28 78 78 78 255
29 81 81 81 255
30 84 84 84 255
31 87 87 87 255
32 90 90 90 255
33 92 92 92 255
34 95 95 95 255
35 98 98 98 255
36 101 101 101 255
37 104 104 104 255
38 106 106 106 255
39 109 109 109 255
40 112 112 112 255
41 115 115 115 255
42 118 118 118 255
43 120 120 120 255
44 123 123 123 255
45 126 126 126 255
46 129 129 129 255
47 132 132 132 255
48 134 134 134 255
49 137 137 137 255
50 140 140 140 255
51 143 143 143 255
52 146 146 146 255
53 148 148 148 255
54 151 151 151 255
55 154 154 154 255
56 157 157 157 255
57 160 160 160 255
58 162 162 162 255
59 165 165 165 255
60 102 255 204 255
61 102 255 204 255
62 102 255 204 255
63 102 255 204 255
64 150 50 255 255
65 150 50 255 255
66 150 50 255 255
67 150 50 255 255
68 150 50 255 255
69 255 0 0 255
70 255 0 0 255
71 255 0 0 255
72 255 0 0 255
73 0 255 0 255
74 0 255 0 255
75 0 255 0 255
76 0 255 0 255
77 0 255 0 255
78 255 255 0 255
79 255 255 0 255
80 255 255 0 255
81 255 255 0 255
82 245 10 245 255
83 245 10 245 255
84 245 10 245 255
85 245 10 245 255
86 245 10 245 255
87 245 10 245 255
88 245 10 245 255
89 245 10 245 255
90 245 10 245 255
91 245 10 245 255
92 245 10 245 255
93 245 10 245 255
94 245 10 245 255
95 245 10 245 255
96 245 10 245 255
97 245 10 245 255
98 245 10 245 255
99 245 10 245 255
100 245 10 245 255